^Y:\GD\MOOC\ALGO\ALGO VS\KNAPSACK\STDAFX.CPP
Y:\GD\MOOC\ALGO\ALGO VS\KNAPSACK\DEBUG\KNAPSACK.PCH
Y:\GD\MOOC\ALGO\ALGO VS\KNAPSACK\DEBUG\VC120.PDB
Y:\GD\MOOC\ALGO\ALGO VS\KNAPSACK\DEBUG\VC120.IDB
Y:\GD\MOOC\ALGO\ALGO VS\KNAPSACK\DEBUG\STDAFX.OBJ
^Y:\GD\MOOC\ALGO\ALGO VS\KNAPSACK\KNAPSACK.CPP
Y:\GD\MOOC\ALGO\ALGO VS\KNAPSACK\DEBUG\VC120.PDB
Y:\GD\MOOC\ALGO\ALGO VS\KNAPSACK\DEBUG\VC120.IDB
Y:\GD\MOOC\ALGO\ALGO VS\KNAPSACK\DEBUG\KNAPSACK.OBJ
